{"items": [{"external_urls": {"spotify": "https://open.spotify.com/artist/0L8ExT028jH3ddEcZwqJJ5"}, "followers": {"href": null, "total": 18980544}, "genres": ["alternative rock", "funk metal", "funk rock", "permanent wave"], "href": "https://api.spotify.com/v1/artists/0L8ExT028jH3ddEcZwqJJ5", "id": "0L8ExT028jH3ddEcZwqJJ5", "images": [{"height": 640, "url": "https://i.scdn.co/image/ab6761610000e5ebc33cc15260b767ddec982ce8", "width": 640}, {"height": 320, "url": "https://i.scdn.co/image/ab67616100005174c33cc15260b767ddec982ce8", "width": 320}, {"height": 160, "url": "https://i.scdn.co/image/ab6761610000f178c33cc15260b767ddec982ce8", "width": 160}], "name": "Red Hot Chili Peppers", "popularity": 83, "type": "artist", "uri": "spotify:artist:0L8ExT028jH3ddEcZwqJJ5"}, {"external_urls": {"spotify": "https://open.spotify.com/artist/26T3LtbuGT1Fu9m0eRq5X3"}, "followers": {"href": null, "total": 3109419}, "genres": ["modern rock", "punk blues", "rock"], "href": "https://api.spotify.com/v1/artists/26T3LtbuGT1Fu9m0eRq5X3", "id": "26T3LtbuGT1Fu9m0eRq5X3", "images": [{"height": 640, "url": "https://i.scdn.co/image/ab6761610000e5eb7d994f7e137c10249de19455", "width": 640}, {"height": 320, "url": "https://i.scdn.co/image/ab676161000051747d994f7e137c10249de19455", "width": 320}, {"height": 160, "url": "https://i.scdn.co/image/ab6761610000f1787d994f7e137c10249de19455", "width": 160}], "name": "Cage The Elephant", "popularity": 74, "type": "artist", "uri": "spotify:artist:26T3LtbuGT1Fu9m0eRq5X3"}, {"external_urls": {"spotify": "https://open.spotify.com/artist/56r9ccCkwBCSDHIYviwhcv"}, "followers": {"href": null, "total": 183224}, "genres": ["asmr"], "href": "https://api.spotify.com/v1/artists/56r9ccCkwBCSDHIYviwhcv", "id": "56r9ccCkwBCSDHIYviwhcv", "images": [{"height": 640, "url": "https://i.scdn.co/image/ab6761610000e5ebf443c651f532c23a9a987528", "width": 640}, {"height": 320, "url": "https://i.scdn.co/image/ab67616100005174f443c651f532c23a9a987528", "width": 320}, {"height": 160, "url": "https://i.scdn.co/image/ab6761610000f178f443c651f532c23a9a987528", "width": 160}], "name": "Gibi ASMR", "popularity": 52, "type": "artist", "uri": "spotify:artist:56r9ccCkwBCSDHIYviwhcv"}, {"external_urls": {"spotify": "https://open.spotify.com/artist/1kDGbuxWknIKx4FlgWxiSp"}, "followers": {"href": null, "total": 907923}, "genres": ["alternative pop rock", "modern alternative rock", "modern rock", "rock"], "href": "https://api.spotify.com/v1/artists/1kDGbuxWknIKx4FlgWxiSp", "id": "1kDGbuxWknIKx4FlgWxiSp", "images": [{"height": 640, "url": "https://i.scdn.co/image/ab6761610000e5eb90e8b4340fa061d702ecc693", "width": 640}, {"height": 320, "url": "https://i.scdn.co/image/ab6761610000517490e8b4340fa061d702ecc693", "width": 320}, {"height": 160, "url": "https://i.scdn.co/image/ab6761610000f17890e8b4340fa061d702ecc693", "width": 160}], "name": "Nothing But Thieves", "popularity": 66, "type": "artist", "uri": "spotify:artist:1kDGbuxWknIKx4FlgWxiSp"}, {"external_urls": {"spotify": "https://open.spotify.com/artist/6Ghvu1VvMGScGpOUJBAHNH"}, "followers": {"href": null, "total": 3364773}, "genres": ["alternative metal", "nu metal", "rap metal", "rock", "sacramento indie"], "href": "https://api.spotify.com/v1/artists/6Ghvu1VvMGScGpOUJBAHNH", "id": "6Ghvu1VvMGScGpOUJBAHNH", "images": [{"height": 640, "url": "https://i.scdn.co/image/ab6761610000e5eb4b2da0b72cab26ac518f1f0d", "width": 640}, {"height": 320, "url": "https://i.scdn.co/image/ab676161000051744b2da0b72cab26ac518f1f0d", "width": 320}, {"height": 160, "url": "https://i.scdn.co/image/ab6761610000f1784b2da0b72cab26ac518f1f0d", "width": 160}], "name": "Deftones", "popularity": 78, "type": "artist", "uri": "spotify:artist:6Ghvu1VvMGScGpOUJBAHNH"}, {"external_urls": {"spotify": "https://open.spotify.com/artist/7Ln80lUS6He07XvHI8qqHH"}, "followers": {"href": null, "total": 17897587}, "genres": ["garage rock", "modern rock", "permanent wave", "rock", "sheffield indie"], "href": "https://api.spotify.com/v1/artists/7Ln80lUS6He07XvHI8qqHH", "id": "7Ln80lUS6He07XvHI8qqHH", "images": [{"height": 640, "url": "https://i.scdn.co/image/ab6761610000e5eb7da39dea0a72f581535fb11f", "width": 640}, {"height": 320, "url": "https://i.scdn.co/image/ab676161000051747da39dea0a72f581535fb11f", "width": 320}, {"height": 160, "url": "https://i.scdn.co/image/ab6761610000f1787da39dea0a72f581535fb11f", "width": 160}], "name": "Arctic Monkeys", "popularity": 88, "type": "artist", "uri": "spotify:artist:7Ln80lUS6He07XvHI8qqHH"}, {"external_urls": {"spotify": "https://open.spotify.com/artist/7bu3H8JO7d0UbMoVzbo70s"}, "followers": {"href": null, "total": 4192799}, "genres": ["new wave", "permanent wave", "rock", "uk post-punk"], "href": "https://api.spotify.com/v1/artists/7bu3H8JO7d0UbMoVzbo70s", "id": "7bu3H8JO7d0UbMoVzbo70s", "images": [{"height": 640, "url": "https://i.scdn.co/image/7ca743e822b80133971ccf5c70fcbd77a4f4f508", "width": 640}, {"height": 200, "url": "https://i.scdn.co/image/2cb2e14783685fd3d27006891aaaa35fc53cd82d", "width": 200}, {"height": 64, "url": "https://i.scdn.co/image/9e1ed6613ac0ef103fbfca3c11ff35fec8d9c6b1", "width": 64}], "name": "The Cure", "popularity": 76, "type": "artist", "uri": "spotify:artist:7bu3H8JO7d0UbMoVzbo70s"}, {"external_urls": {"spotify": "https://open.spotify.com/artist/1uR7zoLrSRI8bSL43OZ0GY"}, "followers": {"href": null, "total": 159210}, "genres": ["alternative pop", "transpop"], "href": "https://api.spotify.com/v1/artists/1uR7zoLrSRI8bSL43OZ0GY", "id": "1uR7zoLrSRI8bSL43OZ0GY", "images": [{"height": 640, "url": "https://i.scdn.co/image/ab6761610000e5ebcd19516952cac53f8c363fc5", "width": 640}, {"height": 320, "url": "https://i.scdn.co/image/ab67616100005174cd19516952cac53f8c363fc5", "width": 320}, {"height": 160, "url": "https://i.scdn.co/image/ab6761610000f178cd19516952cac53f8c363fc5", "width": 160}], "name": "Ezra Furman", "popularity": 48, "type": "artist", "uri": "spotify:artist:1uR7zoLrSRI8bSL43OZ0GY"}, {"external_urls": {"spotify": "https://open.spotify.com/artist/6FQqZYVfTNQ1pCqfkwVFEa"}, "followers": {"href": null, "total": 1312357}, "genres": ["indie rock", "modern rock", "oxford indie", "rock"], "href": "https://api.spotify.com/v1/artists/6FQqZYVfTNQ1pCqfkwVFEa", "id": "6FQqZYVfTNQ1pCqfkwVFEa", "images": [{"height": 640, "url": "https://i.scdn.co/image/ab6761610000e5ebe7b5d168c13ddba810b430dd", "width": 640}, {"height": 320, "url": "https://i.scdn.co/image/ab67616100005174e7b5d168c13ddba810b430dd", "width": 320}, {"height": 160, "url": "https://i.scdn.co/image/ab6761610000f178e7b5d168c13ddba810b430dd", "width": 160}], "name": "Foals", "popularity": 65, "type": "artist", "uri": "spotify:artist:6FQqZYVfTNQ1pCqfkwVFEa"}, {"external_urls": {"spotify": "https://open.spotify.com/artist/4F84IBURUo98rz4r61KF70"}, "followers": {"href": null, "total": 2779217}, "genres": ["alternative rock", "blues rock", "detroit rock", "garage rock", "modern blues rock", "modern rock", "permanent wave", "punk blues", "rock"], "href": "https://api.spotify.com/v1/artists/4F84IBURUo98rz4r61KF70", "id": "4F84IBURUo98rz4r61KF70", "images": [{"height": 640, "url": "https://i.scdn.co/image/ab6761610000e5eb6b9ae52aa437ce42b77e8fcf", "width": 640}, {"height": 320, "url": "https://i.scdn.co/image/ab676161000051746b9ae52aa437ce42b77e8fcf", "width": 320}, {"height": 160, "url": "https://i.scdn.co/image/ab6761610000f1786b9ae52aa437ce42b77e8fcf", "width": 160}], "name": "The White Stripes", "popularity": 72, "type": "artist", "uri": "spotify:artist:4F84IBURUo98rz4r61KF70"}], "total": 50, "limit": 10, "offset": 0, "href": "https://api.spotify.com/v1/me/top/artists?limit=10&offset=0&time_range=long_term", "previous": null, "next": "https://api.spotify.com/v1/me/top/artists?limit=10&offset=10&time_range=long_term"}